<svg width="24" height="24" viewBox="0 0 24 24" fill="none" xmlns="http://www.w3.org/2000/svg">
<path d="M14.2516 14.1263C14.2085 14.1662 14.1659 14.2088 14.1253 14.2525C14.1108 14.2677 13.7237 14.6678 13.027 15.0537C12.1533 15.5378 11.2012 15.7831 10.1973 15.7831C10.1552 15.7831 10.1129 15.7827 10.0704 15.7818L7.92227 13.6337C7.4658 13.1771 6.85889 12.9258 6.21336 12.9258C5.56786 12.9258 4.96096 13.1771 4.50445 13.6336L0.72721 17.4109C-0.215053 18.3532 -0.215053 19.8864 0.727169 20.8287L2.30069 22.4022C2.89522 22.9967 3.75829 23.354 4.37762 23.5491C5.27138 23.8306 6.30217 23.9794 7.35851 23.9794C8.17687 23.9794 9.0176 23.8919 9.85735 23.7194C10.7865 23.5285 11.723 23.2313 12.6406 22.8362C14.731 21.9362 16.7477 20.523 18.6348 18.6359C20.2899 16.9808 21.5849 15.2199 22.4836 13.4019C23.2615 11.8285 23.7418 10.2205 23.9108 8.62274C24.0508 7.2995 23.9702 5.99025 23.6777 4.83641C23.5468 4.31997 23.377 3.84623 23.1731 3.42835C22.9491 2.96921 22.6894 2.59016 22.401 2.30183L20.8275 0.728346C20.3711 0.271962 19.7641 0.0205688 19.1186 0.0205688C18.4731 0.0205688 17.8662 0.271962 17.4097 0.728428L13.6325 4.50567C12.6903 5.44793 12.6903 6.98114 13.6325 7.92344L15.7808 10.0717C15.8016 11.0645 15.5834 12.0085 15.1304 12.8832C14.7236 13.6684 14.2705 14.1082 14.2516 14.1263ZM14.8786 5.75177L18.6559 1.97454C18.7837 1.84676 18.9512 1.78287 19.1186 1.78287C19.2861 1.78287 19.4536 1.84676 19.5814 1.97454L21.1548 3.54806C22.2946 4.68787 23.9461 10.8323 17.3886 17.3898C13.6175 21.1608 9.98307 22.2171 7.35851 22.2171C5.41915 22.2171 4.03116 21.6404 3.54684 21.1561L1.97332 19.5825C1.71777 19.3269 1.71777 18.9126 1.97332 18.657L5.75056 14.8798C5.87833 14.7521 6.0458 14.6881 6.21327 14.6881C6.38075 14.6881 6.54822 14.7521 6.67603 14.8798L9.12452 17.3283C9.23432 17.4381 9.37978 17.5052 9.53454 17.5179C9.76146 17.5367 9.98204 17.5455 10.1973 17.5455C13.3623 17.5455 15.2449 15.6373 15.4167 15.4517C15.4276 15.4399 15.4387 15.4288 15.4504 15.418C15.6487 15.2345 17.8114 13.1002 17.5167 9.53584C17.5039 9.38104 17.4369 9.23562 17.327 9.12578L14.8786 6.67729C14.6231 6.4217 14.6231 6.00736 14.8786 5.75177Z" fill="#023838"/>
<path d="M7.35855 24C6.30012 24 5.26719 23.8509 4.37145 23.5687C3.7499 23.3729 2.88357 23.0142 2.28617 22.4168L0.712647 20.8432C-0.237556 19.8929 -0.237556 18.3467 0.712688 17.3963L4.48993 13.6191C4.95026 13.1588 5.56231 12.9052 6.21336 12.9052C6.86445 12.9052 7.47654 13.1588 7.93683 13.6191L10.0792 15.7614C10.1187 15.7622 10.1581 15.7626 10.1974 15.7626C11.1977 15.7626 12.1464 15.518 13.0171 15.0357C13.7115 14.6511 14.0945 14.255 14.1105 14.2383C14.1511 14.1945 14.1939 14.1517 14.2376 14.1112C14.2563 14.0933 14.7055 13.6586 15.1121 12.8736C15.5616 12.0058 15.7797 11.066 15.7604 10.0804L13.618 7.93792C12.6677 6.9876 12.6677 5.44135 13.618 4.49106L17.3952 0.713824C17.8555 0.253533 18.4676 0 19.1187 0C19.7698 0 20.3818 0.253533 20.8421 0.713866L22.4156 2.28735C22.7056 2.57725 22.9667 2.95814 23.1917 3.41938C23.3962 3.83849 23.5664 4.31355 23.6977 4.8314C23.9908 5.98754 24.0716 7.2993 23.9313 8.62493C23.762 10.225 23.2812 11.8353 22.5021 13.4111C21.6024 15.231 20.3061 16.9938 18.6494 18.6505C16.7604 20.5394 14.7416 21.9541 12.6489 22.8551C11.7297 23.2509 10.7919 23.5485 9.86163 23.7396C9.02032 23.9124 8.17818 24 7.35855 24ZM6.2134 12.9464C5.57333 12.9464 4.97161 13.1956 4.51905 13.6481L0.741814 17.4254C-0.192386 18.3597 -0.192386 19.8799 0.741773 20.8142L2.3153 22.3877C2.90682 22.9792 3.76668 23.3351 4.38387 23.5295C5.27566 23.8104 6.30431 23.9589 7.35859 23.9589C8.17547 23.9589 9.0148 23.8716 9.85332 23.6993C10.7809 23.5087 11.7159 23.212 12.6326 22.8174C14.7205 21.9183 16.735 20.5067 18.6203 18.6214C20.2739 16.9679 21.5675 15.2087 22.4653 13.3928C23.2422 11.8215 23.7216 10.2158 23.8905 8.62056C24.0302 7.29971 23.9498 5.99292 23.6579 4.84148C23.5273 4.32639 23.3581 3.854 23.1548 3.4374C22.9318 2.98023 22.6734 2.60308 22.3866 2.31639L20.813 0.74295C20.3605 0.290392 19.7587 0.0411379 19.1187 0.0411379C18.4787 0.0411379 17.8769 0.290392 17.4243 0.74295L13.6471 4.52019C12.7129 5.45443 12.7128 6.9746 13.6471 7.90888L15.8012 10.063L15.8014 10.0713C15.8222 11.067 15.6026 12.0162 15.1487 12.8926C14.739 13.6837 14.285 14.1228 14.2659 14.1412C14.2227 14.1812 14.1806 14.2233 14.1404 14.2665C14.1241 14.2836 13.7368 14.6841 13.037 15.0718C12.1602 15.5575 11.2048 15.8037 10.1974 15.8037C10.1551 15.8037 10.1127 15.8033 10.07 15.8025L10.0618 15.8023L10.0559 15.7964L7.90774 13.6482C7.45523 13.1956 6.8535 12.9464 6.2134 12.9464ZM7.35859 22.2377C5.46284 22.2377 4.0463 21.6845 3.5324 21.1706L1.95888 19.5971C1.69572 19.3339 1.69572 18.9056 1.95888 18.6425L5.73612 14.8653C5.86364 14.7377 6.03313 14.6675 6.2134 14.6675C6.39366 14.6675 6.56311 14.7377 6.69068 14.8653L9.13916 17.3138C9.2453 17.4198 9.38632 17.4851 9.53635 17.4975C9.75747 17.5157 9.97986 17.5249 10.1974 17.5249C13.4331 17.5249 15.3229 15.5229 15.4017 15.4377C15.4129 15.4256 15.4245 15.4141 15.4366 15.4029C15.5331 15.3136 17.797 13.1735 17.4964 9.53749C17.4839 9.38742 17.4187 9.24631 17.3126 9.14026L14.8641 6.69177C14.601 6.42862 14.601 6.00041 14.8642 5.73725L18.6414 1.96001C18.7689 1.83253 18.9384 1.76231 19.1187 1.76231C19.299 1.76231 19.4685 1.83253 19.596 1.96001L21.1695 3.53354C21.8395 4.20355 22.4209 6.15069 22.1788 8.43948C21.9526 10.5768 20.9405 13.8671 17.4032 17.4043C15.6728 19.1347 13.8388 20.424 11.9518 21.2365C10.4089 21.9008 8.8635 22.2377 7.35859 22.2377ZM6.2134 14.7086C6.04416 14.7086 5.88499 14.7746 5.7652 14.8943L1.98796 18.6715C1.74085 18.9187 1.74085 19.3208 1.98796 19.568L3.56149 21.1415C4.06962 21.6497 5.47456 22.1965 7.35859 22.1965C8.85786 22.1965 10.3978 21.8608 11.9356 21.1986C13.8176 20.3883 15.6474 19.1018 17.3741 17.3752C20.9029 13.8464 21.9123 10.5658 22.1378 8.43507C22.4079 5.88218 21.6694 4.09157 21.1404 3.56258L19.5669 1.98906C19.4472 1.86935 19.288 1.8034 19.1186 1.8034C18.9493 1.8034 18.7902 1.86935 18.6704 1.98906L14.8932 5.7663C14.6461 6.01341 14.646 6.41553 14.8932 6.66265L17.3416 9.11113C17.4546 9.2241 17.5241 9.37425 17.5373 9.53403C17.8396 13.1897 15.5616 15.3431 15.4645 15.433C15.4531 15.4435 15.4424 15.4542 15.4319 15.4656C15.3525 15.5514 13.4508 17.566 10.1973 17.566C9.97867 17.566 9.75512 17.5567 9.5329 17.5384C9.3732 17.5252 9.223 17.4557 9.11 17.3428L6.66151 14.8943C6.5418 14.7745 6.38264 14.7086 6.2134 14.7086Z" fill="#023838"/>
</svg>
