<svg width="17" height="16" viewBox="0 0 17 16" fill="none" xmlns="http://www.w3.org/2000/svg">
<path d="M16.0946 5.28409C15.8613 5.07889 15.5741 4.94661 15.264 4.90155L11.4672 4.34986L9.76926 0.909443C9.63056 0.62845 9.41598 0.396114 9.14874 0.237637C8.9008 0.0906399 8.61668 0.0129089 8.32703 0.0129089C8.03738 0.0129089 7.75323 0.0906122 7.50532 0.237637C7.23808 0.396114 7.02353 0.628422 6.88483 0.909443L5.18689 4.34988L1.39016 4.90155C1.08004 4.94661 0.79279 5.07889 0.559486 5.28409C0.343056 5.47444 0.18137 5.72066 0.0918549 5.99615C0.00236742 6.27161 -0.0115467 6.56585 0.051634 6.84707C0.119766 7.15019 0.274398 7.42607 0.498823 7.64479L3.24616 10.3228L2.59759 14.1042C2.51723 14.5728 2.64622 15.0492 2.9515 15.4113C3.25905 15.7761 3.70779 15.9853 4.18264 15.9853C4.44125 15.9853 4.70009 15.9211 4.93115 15.7996L8.32706 14.0143L11.723 15.7996C11.954 15.9211 12.2128 15.9853 12.4715 15.9853C12.9463 15.9853 13.395 15.7761 13.7026 15.4113C14.0079 15.0492 14.1369 14.5728 14.0565 14.1042L13.408 10.3228L16.1553 7.64479C16.3797 7.42604 16.5343 7.15019 16.6025 6.84707C16.6657 6.56585 16.6518 6.27161 16.5623 5.99615C16.4727 5.72069 16.311 5.47446 16.0946 5.28409ZM15.3281 6.7962L12.294 9.75379C12.1942 9.85102 12.1487 9.99111 12.1723 10.1284L12.8885 14.3045C12.9354 14.5781 12.7181 14.8003 12.4715 14.8003C12.4064 14.8003 12.3393 14.7848 12.2744 14.7507L8.52404 12.779C8.46238 12.7466 8.39472 12.7304 8.32709 12.7304C8.25945 12.7304 8.19179 12.7466 8.13013 12.779L4.37973 14.7507C4.31492 14.7848 4.24776 14.8003 4.18269 14.8003C3.93606 14.8003 3.71871 14.5781 3.76563 14.3045L4.48189 10.1284C4.50546 9.99111 4.45992 9.85102 4.36017 9.75379L1.32598 6.7962C1.07478 6.55136 1.2134 6.12475 1.56053 6.07429L5.75364 5.465C5.89148 5.44498 6.01065 5.35839 6.0723 5.23347L7.94753 1.43389C8.02515 1.2766 8.1761 1.19796 8.32706 1.19796C8.47804 1.19796 8.62896 1.27663 8.70656 1.43389L10.5818 5.23347C10.6434 5.35837 10.7626 5.44498 10.9005 5.465L15.0935 6.07429C15.4407 6.12475 15.5793 6.55136 15.3281 6.7962Z" fill="#C2811D"/>
<path d="M12.4726 16C12.2117 16 11.9507 15.9352 11.7177 15.8127L8.32821 14.0307L4.93875 15.8127C4.70569 15.9352 4.44464 16 4.18379 16C3.70484 16 3.25226 15.789 2.94205 15.4211C2.63415 15.0558 2.50405 14.5753 2.5851 14.1027L3.23242 10.3285L0.49029 7.65556C0.263957 7.43496 0.108025 7.15673 0.0392844 6.85098C-0.0244495 6.56733 -0.0104248 6.27057 0.0798373 5.99276C0.170127 5.71494 0.333224 5.46659 0.551507 5.27462C0.78683 5.06765 1.07656 4.93423 1.38934 4.88878L5.17888 4.33814L6.87361 0.904225C7.0135 0.620797 7.2299 0.386497 7.49947 0.226637C7.74954 0.0783672 8.03609 0 8.32823 0C8.62035 0 8.90693 0.0783672 9.157 0.226637C9.42654 0.38647 9.64297 0.620797 9.78286 0.904225L11.4776 4.33814L15.2672 4.88878C15.5799 4.9342 15.8696 5.06762 16.1049 5.27462C16.3232 5.46659 16.4863 5.71494 16.5766 5.99278C16.6669 6.27062 16.6809 6.56739 16.6172 6.85101C16.5484 7.15676 16.3925 7.43496 16.1661 7.65559L13.424 10.3285L14.0713 14.1027C14.1524 14.5753 14.0223 15.0558 13.7143 15.4211C13.4041 15.789 12.9515 16 12.4726 16ZM8.32818 13.9995L8.33462 14.0029L11.7305 15.7882C11.9596 15.9087 12.2162 15.9723 12.4725 15.9723C12.9433 15.9723 13.3882 15.7649 13.6931 15.4032C13.9958 15.0442 14.1236 14.5719 14.044 14.1074L13.3942 10.3188L16.1468 7.63573C16.3692 7.41886 16.5225 7.14539 16.5901 6.84489C16.6528 6.56611 16.639 6.27439 16.5502 6.00128C16.4615 5.72817 16.3012 5.48405 16.0866 5.29533C15.8553 5.09191 15.5706 4.96076 15.2631 4.91611L11.4591 4.36339L11.4559 4.35686L9.75801 0.916396C9.62051 0.637782 9.40778 0.407493 9.14286 0.250371C8.89705 0.104619 8.61537 0.0275793 8.32821 0.0275793C8.04104 0.0275793 7.75933 0.104619 7.51355 0.250371C7.24863 0.407465 7.03591 0.637782 6.8984 0.916396L5.19722 4.36334L5.19003 4.36439L1.3933 4.91608C1.08586 4.96076 0.801076 5.09188 0.569764 5.29531C0.355215 5.48402 0.194885 5.72811 0.106144 6.00125C0.0174035 6.27436 0.00362767 6.56606 0.0662827 6.84486C0.133834 7.14539 0.287138 7.41886 0.509626 7.63573L3.26216 10.3188L3.26095 10.326L2.61238 14.1074C2.53271 14.5719 2.66059 15.0442 2.96324 15.4032C3.26816 15.7649 3.71303 15.9723 4.18381 15.9723C4.44019 15.9723 4.69678 15.9086 4.92588 15.7882L8.32818 13.9995Z" fill="#C2811D"/>
</svg>
