{
  "name": "vefastyle",
  "plugins": [
    {
      "name": "SASS/SCSS",
      "description": "Sass is a stylesheet language that’s compiled to CSS. It allows you to use variables, nested rules, mixins, functions, and more, all with a fully CSS-compatible syntax.",
      "url": "https://sass-lang.com/documentation"
    },
    {
      "name": "React Redux",
      "description": "Redux helps you write applications that behave consistently, run in different environments (client, server, and native), and are easy to test.",
      "url": "https://redux.js.org/introduction/getting-started"
    },
    {
      "name": "Docker",
      "description": "Docker simplifies and accelerates your workflow, while giving developers the freedom to innovate with their choice of tools, application stacks, and deployment environments for each project.",
      "url": "https://www.docker.com/get-started"
    },
    {
      "name": "Github Actions",
      "description": "GitHub Actions makes it easy to automate all your software workflows, now with world-class CI/CD. Build, test, and deploy your code right from GitHub.",
      "url": "https://docs.github.com/en/actions"
    }
  ]
}